…
    ## Rows: 52179 Columns: 12
    ## ── Column specification ────────────────────────────────────────────────────────
    ## Delimiter: ","
    ## chr (9): uid, victim_last, victim_first, victim_race, victim_age, victim_sex...
    ## dbl (3): reported_date, lat, lon
    ## 
    ## ℹ Use `spec()` to retrieve the full column specification for this data.
    ## ℹ Specify the column types or set `show_col_types = FALSE` to quiet this message.

``` r
# show the first several lines of the original data
homicide_data
```

    ## # A tibble: 52,179 × 12
    ##    uid   repor…¹ victi…² victi…³ victi…⁴ victi…⁵ victi…⁶ city  state   lat   lon
    ##    <chr>   <dbl> <chr>   <chr>   <chr>   <chr>   <chr>   <chr> <chr> <dbl> <dbl>
    ##  1 Alb-…  2.01e7 GARCIA  JUAN    Hispan… 78      Male    Albu… NM     35.1 -107.
    ##  2 Alb-…  2.01e7 MONTOYA CAMERON Hispan… 17      Male    Albu… NM     35.1 -107.
    ##  3 Alb-…  2.01e7 SATTER… VIVIANA White   15      Female  Albu… NM     35.1 -107.
    ##  4 Alb-…  2.01e7 MENDIO… CARLOS  Hispan… 32      Male    Albu… NM     35.1 -107.
    ##  5 Alb-…  2.01e7 MULA    VIVIAN  White   72      Female  Albu… NM     35.1 -107.
    ##  6 Alb-…  2.01e7 BOOK    GERALD… White   91      Female  Albu… NM     35.2 -107.
    ##  7 Alb-…  2.01e7 MALDON… DAVID   Hispan… 52      Male    Albu… NM     35.1 -107.
    ##  8 Alb-…  2.01e7 MALDON… CONNIE  Hispan… 52      Female  Albu… NM     35.1 -107.
    ##  9 Alb-…  2.01e7 MARTIN… GUSTAVO White   56      Male    Albu… NM     35.1 -107.
    ## 10 Alb-…  2.01e7 HERRERA ISRAEL  Hispan… 43      Male    Albu… NM     35.1 -107.
    ## # … with 52,169 more rows, 1 more variable: disposition <chr>, and abbreviated
    ## #   variable names ¹​reported_date, ²​victim_last, ³​victim_first, ⁴​victim_race,
    ## #   ⁵​victim_age, ⁶​victim_sex
…
-   Then, to create a city_state variable, and summarize within cities
    to obtain the total number of homicides and the number of unsolved
    homicides.

``` r
# Create a city_state variable
homicide_data <- homicide_data %>% 
  janitor::clean_names() %>% 
  mutate(city_state = str_c(city, ", ", state))
# show it
homicide_data %>% 
  select(uid, city, state, city_state)
```

    ## # A tibble: 52,179 × 4
    ##    uid        city        state city_state     
    ##    <chr>      <chr>       <chr> <chr>          
    ##  1 Alb-000001 Albuquerque NM    Albuquerque, NM
    ##  2 Alb-000002 Albuquerque NM    Albuquerque, NM
    ##  3 Alb-000003 Albuquerque NM    Albuquerque, NM
    ##  4 Alb-000004 Albuquerque NM    Albuquerque, NM
    ##  5 Alb-000005 Albuquerque NM    Albuquerque, NM
    ##  6 Alb-000006 Albuquerque NM    Albuquerque, NM
    ##  7 Alb-000007 Albuquerque NM    Albuquerque, NM
    ##  8 Alb-000008 Albuquerque NM    Albuquerque, NM
    ##  9 Alb-000009 Albuquerque NM    Albuquerque, NM
    ## 10 Alb-000010 Albuquerque NM    Albuquerque, NM
    ## # … with 52,169 more rows

``` r
# summarize
homicide_data %>% 
  mutate(unsolved = ifelse(disposition == "Closed by arrest", FALSE, TRUE)) %>% 
  group_by(city_state) %>% 
  summarize(n_homicides = n(),
            n_unsolved = sum(unsolved))
```

    ## # A tibble: 51 × 3
    ##    city_state      n_homicides n_unsolved
    ##    <chr>                 <int>      <int>
    ##  1 Albuquerque, NM         378        146
    ##  2 Atlanta, GA             973        373
    ##  3 Baltimore, MD          2827       1825
    ##  4 Baton Rouge, LA         424        196
    ##  5 Birmingham, AL          800        347
    ##  6 Boston, MA              614        310
    ##  7 Buffalo, NY             521        319
    ##  8 Charlotte, NC           687        206
    ##  9 Chicago, IL            5535       4073
    ## 10 Cincinnati, OH          694        309
    ## # … with 41 more rows
